/media/tho/Hoc Tap/eclipse-code-ubuntu/demo-spring-boot-api/src/main/java/com/demo/repository/ProductRepository.java
/media/tho/Hoc Tap/eclipse-code-ubuntu/demo-spring-boot-api/src/main/java/com/demo/api/EmployeeController.java
/media/tho/Hoc Tap/eclipse-code-ubuntu/demo-spring-boot-api/src/main/java/com/demo/dto/JwtResponse.java
/media/tho/Hoc Tap/eclipse-code-ubuntu/demo-spring-boot-api/src/main/java/com/demo/entity/BaseEntity.java
/media/tho/Hoc Tap/eclipse-code-ubuntu/demo-spring-boot-api/src/main/java/com/demo/entity/RoleEntity.java
/media/tho/Hoc Tap/eclipse-code-ubuntu/demo-spring-boot-api/src/main/java/com/demo/service/impl/UserDetailServiceImpl.java
/media/tho/Hoc Tap/eclipse-code-ubuntu/demo-spring-boot-api/src/main/java/com/demo/entity/ProductEntity.java
/media/tho/Hoc Tap/eclipse-code-ubuntu/demo-spring-boot-api/src/main/java/com/demo/service/IRoleService.java
/media/tho/Hoc Tap/eclipse-code-ubuntu/demo-spring-boot-api/src/main/java/com/demo/conf/MVCConf.java
/media/tho/Hoc Tap/eclipse-code-ubuntu/demo-spring-boot-api/src/main/java/com/demo/service/impl/ProductService.java
/media/tho/Hoc Tap/eclipse-code-ubuntu/demo-spring-boot-api/src/main/java/com/demo/service/impl/UserService.java
/media/tho/Hoc Tap/eclipse-code-ubuntu/demo-spring-boot-api/src/main/java/com/demo/repository/RoleRepository.java
/media/tho/Hoc Tap/eclipse-code-ubuntu/demo-spring-boot-api/src/main/java/com/demo/dto/ResponseObjectDTO.java
/media/tho/Hoc Tap/eclipse-code-ubuntu/demo-spring-boot-api/src/main/java/com/demo/entity/CategoryEntity.java
/media/tho/Hoc Tap/eclipse-code-ubuntu/demo-spring-boot-api/src/main/java/com/demo/conf/SecurityConf.java
/media/tho/Hoc Tap/eclipse-code-ubuntu/demo-spring-boot-api/src/main/java/com/demo/conf/JwtAuthenticationEntryPoint.java
/media/tho/Hoc Tap/eclipse-code-ubuntu/demo-spring-boot-api/src/main/java/com/demo/controller/user/HomeController.java
/media/tho/Hoc Tap/eclipse-code-ubuntu/demo-spring-boot-api/src/main/java/com/demo/service/impl/EmployeeService.java
/media/tho/Hoc Tap/eclipse-code-ubuntu/demo-spring-boot-api/src/main/java/com/demo/service/impl/RoleService.java
/media/tho/Hoc Tap/eclipse-code-ubuntu/demo-spring-boot-api/src/main/java/com/demo/service/IProductService.java
/media/tho/Hoc Tap/eclipse-code-ubuntu/demo-spring-boot-api/src/main/java/com/demo/conf/JwtTokenUtil.java
/media/tho/Hoc Tap/eclipse-code-ubuntu/demo-spring-boot-api/src/main/java/com/demo/controller/admin/AdminHomeController.java
/media/tho/Hoc Tap/eclipse-code-ubuntu/demo-spring-boot-api/src/main/java/com/demo/ServletInitializer.java
/media/tho/Hoc Tap/eclipse-code-ubuntu/demo-spring-boot-api/src/main/java/com/demo/entity/Employee.java
/media/tho/Hoc Tap/eclipse-code-ubuntu/demo-spring-boot-api/src/main/java/com/demo/api/ProductAPI.java
/media/tho/Hoc Tap/eclipse-code-ubuntu/demo-spring-boot-api/src/main/java/com/demo/service/IEmployeeService.java
/media/tho/Hoc Tap/eclipse-code-ubuntu/demo-spring-boot-api/src/main/java/com/demo/service/impl/CategoryService.java
/media/tho/Hoc Tap/eclipse-code-ubuntu/demo-spring-boot-api/src/main/java/com/demo/service/IUserService.java
/media/tho/Hoc Tap/eclipse-code-ubuntu/demo-spring-boot-api/src/main/java/com/demo/entity/UserEntity.java
/media/tho/Hoc Tap/eclipse-code-ubuntu/demo-spring-boot-api/src/main/java/com/demo/service/ICategoryService.java
/media/tho/Hoc Tap/eclipse-code-ubuntu/demo-spring-boot-api/src/main/java/com/demo/repository/UserRepository.java
/media/tho/Hoc Tap/eclipse-code-ubuntu/demo-spring-boot-api/src/main/java/com/demo/api/CategoryAPI.java
/media/tho/Hoc Tap/eclipse-code-ubuntu/demo-spring-boot-api/src/main/java/com/demo/api/RoleAPI.java
/media/tho/Hoc Tap/eclipse-code-ubuntu/demo-spring-boot-api/src/main/java/com/demo/conf/JwtRequestFilter.java
/media/tho/Hoc Tap/eclipse-code-ubuntu/demo-spring-boot-api/src/main/java/com/demo/dto/JwtRequest.java
/media/tho/Hoc Tap/eclipse-code-ubuntu/demo-spring-boot-api/src/main/java/com/demo/controller/admin/JwtAuthenticationController.java
/media/tho/Hoc Tap/eclipse-code-ubuntu/demo-spring-boot-api/src/main/java/com/demo/repository/EmployeeRepository.java
/media/tho/Hoc Tap/eclipse-code-ubuntu/demo-spring-boot-api/src/main/java/com/demo/api/UserAPI.java
/media/tho/Hoc Tap/eclipse-code-ubuntu/demo-spring-boot-api/src/main/java/com/demo/Application.java
/media/tho/Hoc Tap/eclipse-code-ubuntu/demo-spring-boot-api/src/main/java/com/demo/repository/CategoryRepository.java
